406756
22296
27636
8864
10045
6010
56658
9151
9137
11112
7364
10766
7933
8247
10341
9680
6882
10180
8587
20273
13454
9855
11847
13434
13015
44358
7718
8438
10771
8369
6266
5186
28940
6397
31272
6472
4813
4844
5262
6389
5790
6341
8750
5997
7534
7966
6259
6182
6169
4778
2841068
302
