834309
13049
10401
3797
3076
4091
27699
3924
6014
6480
4617
3426
7476
4429
6023
4176
4931
5927
5249
4547
5234
5558
4258
4257
7958
31870
9477
6106
9740
9168
5901
5031
3296
4500
4998
4285
18130
5601
2098
2977
3257
3296
6205
5442
3039
22705
2212
4592
2393
2623
1165549
212
