985219
18691
10798
16082
22918
50411
29329
50184
45428
30776
45313
41210
36681
41872
52247
106013
69581
65735
81024
121594
97440
114003
120008
136841
125788
19175
6126
2771
8904
8367
2248
3387
4549
4375
3447
3691
6745
4500
3159
2937
2990
2772
4349
2090
2547
2491
2198
5531
2559
2621
1367106
277
