393211
5821
4763
4233
4416
4097
4069
4726
5325
4355
4105
4037
8697
5396
3824
4245
5892
4809
3892
4238
4054
7061
4002
3716
9448
28716
4607
6903
14197
4519
3826
3850
1684
3796
3608
1762
6327
1610
1825
2468
1691
1634
7454
4247
2382
6296
2440
5374
1642
1602
2736715
228
