374349
21100
10212
21948
18385
6479
16016
18377
7114
16668
10724
13972
8374
7799
9153
8343
23338
13329
18344
14779
16334
10279
11038
7900
13268
42460
10497
205117
140491
39411
92132
57960
68592
22168
90372
22349
25745
77453
22479
5121
72699
71380
47171
75326
65693
4381
75619
6374
58648
56020
2257861
150
