212636
3658
3220
2972
3040
3065
3404
3260
5726
3512
3540
3168
7484
3192
3531
3658
3438
5346
3805
3075
3135
6594
3037
3199
8481
15978
3739
138595
56482
16164
65131
59438
57554
9502
89903
4175
5155
65964
3461
4263
56039
42087
43041
67196
60899
4142
42705
3583
41125
68179
2420605
247
