1061900
25984
12385
5204
4501
4440
4765
5672
6047
4247
5392
6616
3723
4263
6389
5652
7041
4337
5435
5075
6881
4541
4284
6395
6145
15957
5015
181805
64590
39940
92962
79038
58059
22539
74725
8357
5792
67241
27229
15264
101919
80466
65168
70316
57730
3579
47054
3662
42848
69162
2932715
138
