1143347
26804
15115
50701
30035
65545
41363
65894
38419
51840
55918
39216
76498
80417
74066
87617
84385
65094
97702
132920
133303
161079
177827
182037
196317
218234
233548
255854
173489
141221
127738
226780
226531
258651
248394
269155
253679
262249
234635
246446
206234
223829
345269
343352
325993
367971
420705
448430
492703
526013
539213
532144
596006
471628
692088
625910
666254
557366
632409
840814
31260
886869
674013
669345
679958
755273
752981
835292
809534
886562
1156443
9797
1025542
1215119
711775
677156
761086
700363
856571
924832
885198
947371
914134
907384
1124843
1067582
1464732
1467206
1510870
1169794
1265932
1203893
1335430
1420935
1649916
1439253
1579634
1277532
1483180
1356611
3506262
1792663
1442040
1443598
1435295
1483515
1668337
1679570
2402282
1877705
1602176
2077861
1994272
1881534
2184470
2162274
1980872
1986696
2361907
2563125
2285631
2738674
2611079
2906889
2656469
3138520
2839949
2775855
3106132
3469260
3153052
3661240
3251775
3086
3674720
3451052
4095646
3577895
4428737
4347086
3916515
4504326
4180167
4293643
8165
4305093
5275436
4608645
5498125
4872896
5138360
22322
5083979
5971488
6376114
6345852
6367576
6473997
5925371
6119238
6877981
7085013
7159847
7359099
7024977
7616161
7703985
7421548
8796344
8166024
8461125
8548577
9529135
8997652
9086118
9129826
9302085
9246259
10874384
9950185
10059372
10512046
10086516
10428672
10386401
10570886
11256749
11332334
11444900
11595287
12115117
11950257
11676
13032965
12049793
12948446
13132559
13717513
13803915
13347457
13371709
7120
13478976
13811371
14329502
14970273
15105144
14806795
15633810
16087479
16164744
16254088
16819772
19084
16977699
17224449
16463235
4598
17356779
17500788
18486480
18645075
17976131
19055250
10386
18362831
19467564
19507764
20329585
19722252
19825814
20563413
21652809
21816500
22099623
21764109
14134
21848802
22859515
23753
23046315
23593642
24610500
24556006
24478002
24214958
25257910
25036845
26345327
26832797
26333502
5248
26584604
26776755
26830856
27867785
31296173
28470426
30036033
30564142
29997695
30198712
31265057
30358363
31666717
35221625
55681251
25197
38945581
35963641
9636
35872128
35398982
36971946
36366083
37389866
11557
39045091
37705749
38363921
38710640
37795862
39040610
40461106
38826669
9989
19058
39107169
13175
40398716
40377561
42009601
41712293
43706967
43467328
42107594
44782286
43140191
5488
43006309
42980472
45355859
44051799
42858281
5590
44214357
45345537
46205897
4607
46075172
46332259
48097074
46582000
49223863
48454102
51535116
54140113
51899556
55463357
52513819
21859
60322
51458354
52407912
52031704
53658349
53432952
3077
54575086
55312207
10358
13065
56105056
57729054
57056129
58320048
10052
58857468
57167745
61992289
58778363
61140401
60005107
62052058
4953
61510577
63980735
62939070
65984542
80616
65250525
66698728
71395985
41730
19764
68544330
13614
66692656
68978542
7694
68028813
70561774
70278395
72775470
70858051
72830520
72121355
74541037
73923298
8601
75726054
13322
12173
4654
75952898
1717
77858974
78903923
78477816
79711721
84676949
5985
79172973
81780196
80986320
88730684
94137190
3335
83867944
83267259
86202521
85338899
86313558
86074514
88008821
17295
88793311
90731084
4464
90387092
103321031
13579
92182753
93420094
102415955
94999583
7056
94605958
1842
95831196
96480003
99525380
101555655
15750
102299920
100685882
102830022
103580105
105129132
109082491
109787228
107526612
109687123
110469792
20632
10983
110105105
113116450
112641083
112946874
116086399
118651002
21520
5588
113642573
114722070
115026852
116337206
124476107
118204674
119053203
8636
122395337
122580764
125426404
24055
129854718
125969352
125899929
127815131
127485982
11410
129967333
21108
151305949
15306
131025547
138253096
136709067
17311
134537993
135605504
135995746
138830597
139392466
11495
140026986
16373
140082068
143189970
144748166
144876847
2817
147026027
16211
27195
14342
146910339
148581129
149298484
8594
149145444
151526793
151881592
153714207
153716344
155914563
156900648
157495269
157614217
16632
159827705
162272132
163307797
167257074
165313093
166250716
168854836
186607481
171633796
11298
5732
14922
2644
12833
8586
5789
11981
5351
6231
2859
12729
4306
15439
27826
3137
14666
2016
19321
5326
2839
3998
8549
13843
6400
6151
6385
4237
19627
2380
1418
6553
5002
14043
15503
15304
22143
22664
8069
1554
2248
11462
10778
4289
3300
13103
10508
5519
15172
10698
11373
3160
6066
2121
17145
5868
2393
20911
8038
3978
2096
5720
9977
10790
9529
1238
12181
7265
10117
5207
6307
7871
2639
5658
10293
10712
14870
4846
6842
5884
3860
8818
6039
16274
1725
1566
1687
16910
4966
8395
3200
6349
5256
7557
2153
7904
7989
11291
12898
4260
11732
12450
12388
16900
6630
12143
7709
3844
11149
3523
6697
5939
7158
10080
11648
5348
10146
3045
5836
15495
6246
11424
7512
2054
11078
10521
6550
19342
7544
11082
10767
16315
6868
3948
2540
8826
15394
21231
7425
12740
16203
5476
5489
3313
11916
8766
2525
14494
20211
9527
13043
5966
10880
5576
3208
26832
10049
2148
15689
22934
9208
27457
13701
8501
6829
10358
30420
19636
13135
3944
10581
9740
15217
2510
18120
10244
14117
2372
11316
14003
2924
1750
7862
13327
6042
11986
12967
6793
6603
7893
9404
2789
22692
19252
7542
11421
9641
5040
19172
8966
14439
5208
11222
7235
2785
5638
1755
6237
1784
11430
10108
5195
9277
15938
8433
5836
4451
2580
9524
8891
5319
7340
11403
8643
17016
21156
15696
11552
15512
7732
2386
12073
9484
6351
4239
8980
7417
6302
2675
13219
11416
9711
793
4197
3627
12888
12210
8626
6318
10047
7785
12565
10876
6623
11931
12089
10243
3402
6227
18644
12181
2569
18568
10942
14549
12075
7856
2089
7149
1433
3440
19788
22679
7368
10002
5775
14594
2778
15550
5491
5984
6663
3696
3639
11308
14792
6483
9258
11534
7782
11139
7275
11763
6766
2602
7255
6101
8476
5115
8363
9878
2220
4678
8513
7168
3945
10535
6262
8869
984
6004
10048
11896
9910
9977
16406
1592
7472
9019
12756
9085
7506
10185
8834
4284
7126
10248
8644
6999
3715
6211
4019
9310
10764
4649
8586
9156
2975
11595
1002
5100
13256
12534
13604
5888
7464
11608
2667
10702
8649
17061
12771
5693
8556
6770
6019
4180
3782
2668
5926
18716
7569
17936
17466
13435
5116
3940
4086
11891
6701
15084
6072
6740
15563
4307
5511
5728
8268
10446
8946
17169
3363
4858
8543
12788
12749
12410
5839
2871
10943
7762
12018
8821
9885
10013
11474
5398
2316
4022
12586
4788
12025
10897
6960
10152
1480
7742
14721
2025
2842
8108
12731
8552
7156
4608
10297
6952
3254
12644
1418
11336
4805
2199
7894
1525
9725
9828
5385
7582
11254
12074
8434
11595
8113
2912
9121
7793
3285
11633
11469
6754
1610
8820
9190
4298
7551
4085
6950
7583
12076
10846
7916
1229
5334
805
12013
12336
6750
10040
20577
8936
9324
7635
1144
2176
4207
8801
11351
4771
9099
5556
5540
6727
6587
3181
9901
11842
7046
9712
6187
11881
8569
8198
17983
16176
4990
9225
3203
10926
2864
4247
1354
625
11265
8109
8816
3773
9356
9638
3013
38013235
233
