936884
21685
12831
4527
3905
4353
5293
5211
6198
4814
12275
6607
4439
6133
6479
6149
5596
5367
8510
5277
8102
23478
8373
17987
6963
7258
10421
6516
5631
6822
7088
6333
6906
10287
7500
9213
7693
18800
3752
5188
2828
5670
3974
5584
7983
5055
7188
7762
20503
5843
5066
12521
5443
3086
16890
3252
4101
4678
3374
4497
18441
11502
7342
7167
36481
3358
3136
2267
2026
2887
3161
3868
3748
3118
3430
2037
3121
3032
3336
2093
2471
2080
3124
2894
2829
4674
3359
3861
3002
2307
1421
2617
2967
2528
2566
1700
2795
2616
2509
3319
2012
3141
2969
2529
2277
2417
2818
2877
3505
2127
2945
2588
3988
2116
3187
3847
3390
2668
3365
4120
3493
4087
2984
3386
3695
3764
5755
12270
12755
10157
3603
15152
5116
2929
3253
3948
2853
4614
4385
1874
2761
2265
1992
2748
2126
2412
2043
1392
2328
1575
997
2624
1805
2092
2196
1699
1428
1650
1323
1903
1378
1473
1953
2825
1557
1827
1697
1570
8244
1895
1492
1994
1382
2292
2038
2948
2651
1379
2041
2028
2035
1530
2157
2076
2927
4210
1754
1665
1603
3184
2163
2075
2718
2526
1862
2398
4419
2534
1734
1712
5051
13311
5655
3914
4421
22749
20374
10962
5164
4264
4521
4433
4250
4147
5264
4151
3939
3363
3870
2101
3279
2060
54341
9683
4178
6022
4357
4606
4063
4230
4214
3957
2877
3371
3371
3841
3105
3210
6378
2100
4703
4227
3621
2850
2668
2852
3614
4436
3278
3999
3822
3634
4341
4804
2960
4838
3074
2945
5361
3220
3662
4133
3929
1836
3373
4619
6721
4554
5075
3309
3836
3115
3102
5088
3215
2509
3523
3274
2653
4044
2990
3104
3863
2831
2638
3316
2322
3546
3863
2682
3242
2708
2715
2693
2459
3223
1796
2596
1829
2538
3626
3099
1997
1293
2090
4500
2959
3907
2321
3274
2297
3228
2678
2489
2334
2795
2875
2802
3488
2494
2142
2235
3690
3346
4049
2567
4938
4607
3533
3932
3207
3692
2560
3054
3066
9229
3428
4505
3456
2875
3441
4481
3670
6010
2861
2959
4395
3301
2228
3129
2505
3043
4532
3107
4736
2152
3122
3541
3027
2118
9343
3509
3227
4170
2574
4230
3436
2189
5313
3810
3503
3722
2457
2880
3079
1839
4716
1904
3359
2082
2956
3055
2554
4443
4898
2860
3654
2860
3386
2673
3099
2945
3665
4812
3580
3406
2185
3313
3081
3003
34336
2187
2618
3694
4727
3429
3473
21591
2531
4804
5304
4200
5601
4270
2919
32587
2085
1019
2503
3028
2392
3629
3876
2208
2554
3068
2073
3498
2795
3029
2382
3559
2975
2947
3727
2135
2967
2836
3376
3827
4210
1997
3032
3034
2384
3451
2584
2922
7711
2714
2227
3487
3286
2793
2048
3149
2227
3418
3182
2728
3184
3458
3813
4764
1861
2776
2036
2101
2448
1831
3722
2566
2871
3759
2817
3181
3002
1827
2016
3307
1465
2115
2793
3211
3495
2618
3572
2327
3852
2623
3653
2381
2262
2633
3187
3525
2674
3594
2587
3252
2516
2123
3334
3186
3405
3165
2729
1881
2299
3025
3894
8052
3550
1993
4381
3916
1740
2997
2065
3354
2952
3775
2728
3214
1537
1475
2140
2200
4199
2470
3099
2808
2737
2805
3229
3484
3093
3998
31780
2285
2522
4049
4786
3718
2929
3000
5549
2211
4104
3598
3989
2949
2740
3344
3630
4046
4004
3336
3738
2685
4036
3466
3668
4178
2984
2349
4178
3024
4512
2264
3087
3112
3341
3087
3079
35923
21172
11970
2157
3251
3032
2521
2058
2032
2626
2708
3287
4622
3052
2649
2413
2584
2186
2440
2317
3862
2883
3691
3735
3139
2417
1251
3167
2101
2272
2762
1664
3050
2867
1578
3359
3761
2067
1871
3836
2373
2983
3598
1993
2254
2340
3087
1660
2831
3254
4295
2610
3604
2940
2335
3193
3890
2793
2399
2300
1861
3768
3811
3082
6921
3965
4026
2959
3566
2650
4371
1943
3805
3272
2680
2892
3849
2259
2895
3902
2432
3054
3460
13117
1635
1784
3301
1893
3496
2999
2739
1179
4116
2229
2730
3960
2405
3961
2937
4213
2122
2668
2209
2469
2466
2911
2354
1826
1949
2137
3553
3324
1855
1825
2145
1813
19132
3733
3989
2018
1972
2982
2811
3874
2084
2908
2197
2012
1752
918
1997
1370
3543
2385
2365
2770
2362
1734
3061
2890
1607
1975
2434
3958
1320
8915
2391
3166
1301
1258
2873
2536
3740
2604
919
1180
1662
1737
2080
970
1549
914
1781
2574
1961
1089
3094
1542
2098
2920
2638
2681
3506
1270
3015
2511
2857
3483
2271
1846
2556
1435
3186
1619
2131
3072
3144
2750
2021
3149
3538
1515
2878
2664
2311
2998
3007
1462
8308
2243
3351
1320
28513
2008
2928
2098
1655
1493
3512
2923
1581
3578
3082
3867
3206
1350
2060
3498
1619
1464
1154
2824
1129
957
2094
2220
2711
1337
2077
1489
2130
2534
926
1632
1241
1711
3546
527
1924
2371
1899
31501
3336
1812
3393
3426
2115
1441
2407
1337
2305
3100
1056
2087
2540
1532
1420
2818
3438
1933
1029
2330
2313
2212
1087
2407
2803
1689
637
1868
1144
3479
2967
1561
1371
2653
2593
2287
2673
2264
1837
1814
2845
1151
2192
885
2645
1335
2319
2207
2466
1624
1714
2923
2285
2823
2235
3253
1630
1823
2598
2911
2488
3331
2650
3009
2465
2815
2344
4728
1729
2192
2881
2768
2796
3073
3175
2645
2312
2362
2836
1370
2357
3266
3707
2745
1605
640
1901
2554
1446
1254
2529
3352
696
1819
2561
2030
1569
1571
2273
3128
2638
2609
1841
2018
1373
2454
2296
2490
1980
3816
2073
1839
2031
1432
1814
1565
3845
1953
864
1854
2004
1428
1062
1205
3110
1661
1751
3260
2232
2563
2310
2954
3226
2922
1696
2195
1921
1684
1787
2240
2180
811
1746
2559
1553
495
1664
2359
1918
2506
1415
1313
3528
1716
1218
2089
1973
1612
1657
2972
1826
1657
1687
2226
1550
2820
1694
3329
1679
1787
1786
3556
1774
1370
787
2517
2040
1941
1714
1861
3186
1174
641
31088758
257
