271000
4652
4417
3395
3413
3236
3285
3307
5322
3702
4036
3787
8070
4798
3541
3448
4345
5541
3397
3216
3423
6899
3396
3884
9083
17806
17529
6607
13782
5615
3801
3334
4022
3705
3439
3401
4370
4173
7858
4046
4203
4873
3692
4414
6157
4943
5281
4285
3480
1542
1927992
239
