928055
13643
2606
2827
3175
3328
3696
4031
5432
5328
5386
4623
5586
6143
5353
9826
19931
7136
10547
5374
3899
3837
4694
4198
4604
16533
16129
11517
23449
2897
3416
6203
12096
2526
30807
4367
3197
9106
4439
6283
7206
6816
2687
4893
4186
6161
6849
2753
3985
4355
1783772
319
