976306
17780
14436
2569
3580
5179
4881
4834
5753
5979
6901
4232
5382
7570
5430
5655
5968
6655
4393
4015
3316
4611
5988
4619
12385
16859
35982
5080
31688
5866
5760
10028
14166
9030
31705
6549
12573
13743
6524
20579
11092
5918
4806
3393
5981
12851
4806
5347
4535
3730
1614304
304
