963149
22066
9238
4524
2930
5358
4399
4101
6774
8652
4690
6805
4175
5218
5375
5829
5986
6083
5965
4763
6432
5718
3993
10439
6403
19811
7853
6146
7362
7006
7138
7355
5091
12611
9647
6380
7910
4916
4177
5360
7801
18579
21503
4261
5569
4749
18518
15046
5092
39690
2828
2708
2935
3029
3197
2070
2883
2381
2715
2837
2370
2556
2460
1590
2168
2230
2569
2968
2085
1846
1508
2459
2277
2427
1621
1911
2425
2788
3036
2033
2499
2178
2605
1943
4428
2694
2016
2870
2943
2631
3186
2551
2209
2563
1877
2282
2257
3168
2970
3182
2972
2170
2487
1623
2092
3204
2569
1899
2660
3681
2995
2831
2586
2587
2603
2643
4584
3741
3579
3169
2708
3979
2155
2594
2910
3490
3068
3710
2724
4473
2466
3466
1804
3903
2325
1769
3035
2377
2386
1974
2545
5332
1890
2701
1818
3306
2914
3195
3256
2038
1739
1874
1644
2190
1943
2487
3732
1943
2753
2930
2669
2820
2851
2764
1627
2491
2830
2559
2654
2274
6576
2230
3238
2354
2152
1535
2253
5801
5666
3981
10716
10216
3293
3531
3895
2623
3883
3850
4583
2928
3456
3505
2346
3882
2968
2088
2893
3608
2130
3236
2437
2397
2205
2448
2826
4397
4973
4267
5531
3889
4093
3488
4387
2324
3791
3051
3053
2579
2795
3385
2982
2574
4019
2765
2913
2055
3278
2065
1994
2804
6099
2833
3405
2755
3108
3192
2546
3046
2711
4814
16565
3919
14259
11966
3826
2185
3780
3281
3368
4030
3999
3697
3415
3416
5912
2736
3627
3053
3719
4561
3971
4094
4925
2318
2890
1819
2541
3118
3719
2743
2418
2636
24389
2643
2727
3284
3099
2437
2833
2304
5016
2422
3156
3005
3186
3446
3735
2985
2157
2448
2723
3336
4455
3086
3057
2778
2624
2295
2943
3496
3610
2062
2385
2769
2613
2452
1968
6591
2197
2662
2544
3141
2396
2141
2011
2443
9208
2735
2131
2519
3092
3037
2991
2712
2635
2806
3284
2303
2742
1435
4799
3620
3641
2520
3087
3794
1203
3513
2542
2534
2322
2848
2233
2357
2214
3267
1858
1973
2098
3042
2838
3725
2783
3676
3189
2267
2827
2998
2310
4028
1935
3085
3941
2441
3119
1179
3599
3314
3826
4852
4448
3054
3052
4130
2867
3051
3821
3615
4223
2748
3016
15244
38921
7425
4584
3588
3112
3074
3833
3545
4273
3986
3854
3906
2377
2496
2461
3451
3417
2165
3259
3598
3068
2683
3720
4163
3807
3981
4497
3732
3052
3598
3755
2907
3126
3710
2407
2120
2954
1938
2521
2009
3609
4338
3572
2767
2831
2384
3027
3501
3119
2591
3797
2260
2968
2771
2932
1917
1644
2947
3149
3570
2674
2284
4011
3032
2619
3764
3448
3172
3298
3098
3156
3727
3737
3840
2606
2144
31579
5266
3074
3966
2082
1979
4661
2616
3619
889
3410
2717
1530
1357
75451
11227
2966
1966
3356
3513
2686
2459
1869
2504
3183
2039
2864
6659
2497
2309
2760
1730
1553
1813
3140
2631
1898
3419
3855
2680
1953
2798
47146
1841
14949
2826
2093
10690
2011
2249
2334
30647
6159
3996
2944
2232
2013
3110
10399
1398
2436
5033
1419
14957
2211
2259
3532
1801
6385
1331
2255
10394
12748
8229
6753
2312
4701
4120
3988
8292
15504
2741
17095
6587
8403
6837
2351
1679
1719
3903
2378
2853
2115
2435
14703
7248
1853
10693
4576
5654
4945
2382
1774
2473
3460
1451
1490
2082
2434
1494
22725
7639
7440
3060
4913
1956
2464
3207
3438
3064
2083
7511
1811
2208
5324
1875
21170
6487
2503
17664
3574
1518
5964
9624
18412
8389
1758
3924
3244
44646
3927
22580
3456
2109
1206
7392
2661
2386
7700
2596
1204
2703
2367
4732
2872
2944
8122
4165
2563
24159
2147
4280
3474
3269
2807
2090
2316
2807
38207
3351
2748
1479
2173
3052
2297
3572
3034
5885
1834
2750
2758
5367
3012
3179
2727
3466
2596
3060
2984
2885
2986
3293
3547
3409
6134
4209
2899
3466
2972
5270
3197
3800
3135
2717
2718
3453
5569
3186
3259
4422
3700
3196
3695
27198
4302
4531
3239
2649
1531
2761
2903
3414
3800
2709
2189
1951
5695
2423
1670
5964
2101
1709
1887
3847
1492
1742
3241
2314
4470
2955
2912
2629
1822
3108
2375
3077
2556
1622
977
2178
3018
4019
3206
1908
1712
2835
4121
4106
3303
5596
3974
6273
29958
12204
3555
2781
14788
5190
3127
5215
2700
2549
25457
6676
27143
4701
2372
3505
3584
3050
13362
2963
2925
2466
2626
5530
3139
2117
4791
3874
2381
2924
2571
1635
2085
2987
3304
2479
1585
3146
2073
2333
4932
3878
2910
3041
3014
4051
2272
3314
10167
2580
6909
3154
5266
3675
4066
3214
3624
7308
3628
3540
3403
6482
4390
3292
3055
3346
2006
3223
3283
3994
2806
4864
3189
3744
2568
3168
3542
2436
2669
2581
3751
3848
1753
2759
1031
2864
4686
1240
3391
1948
2616
2581
2677
1953
1604
1873
2352
2743
1735
2531
4183
2848
2096
2557
2756
2935
5832
3109
3279
2558
1984
2574
2819
2080
2513
4268
4186
3025
3441
2290
3226
3578
4448
3032
3314
3918
2514
3325
23421
2437
1568
4978
1738
2315
3674
2371
2566
5063
2463
1686
3589
2036
2023
9296
2716
2418
1670
23132
5726
1652
2402
5685
4558
1505
2718
1605
3894
3641
6457
3484
1289
3607
2860
10154
1522
3172
1832
2494
2138
4218
2382
2890
4462
1861
2053
3331
2771
3282
2494
2760
6204
2042
4654
2666
2787
2487
4849
4013
2044
3399
1637
1897
2220
2941
4348
1724
3725
2006
1886
6629
1823
962
2987
2514
2049
1670
3886
2524
4514
2016
2268
3461
2245
2758
939
1791
2640
1269
2011
3398
1166
2423
2162
1694
3067
2703
1376
2464
2531
3578
3543
2619
2362
3079
1426
1283
2148
2123
3370
2486
3629
2199
2013
2058
3121
2681
2063
2643
3257
1886
2360
4973
5146
2388
966
3009
3324
2315
3012
2013
2618
2541
2275
3010
3357
2771
2016
1657
3884
4796
1384
2100
2661
2763
2843
1924
3153
3725
2110
2456
25883541
349
