1003263
20073
3065
3148
2579
3680
4277
4269
5257
3624
5195
4974
6008
4814
6083
7300
15470
6920
6496
5198
5809
4972
5605
5327
4235
4244
5918
4748
5292
6880
5425
5848
7477
6791
7662
8462
20356
7051
7615
10621
5722
26469
9098
12632
13615
15415
7955
7722
10432
10803
17217
10753
10633
10132
10132
10489
10792
10868
8642
14257
11690
11333
11141
11540
12605
15512
9682
9782
18595
10424
13858
9393
9226
17240
13722
13669
33759
10357
13754
17264
34461
14570
14134
13728
26806
11789
14605
15837
15714
13803
14552
16173
14315
16064
18040
17848
13404
37370
20762
22365
22050
22856
23470
44219
33763
32059
3576
35835
11773
10596
10263
9560
8843
6007
5758
8181
6641
5455
7302
7982
7880
7251
7434
7662
7640
7548
7080
24284
5365
11051
10488
1361
12074
8134
7488
7660
5070
7561
7668
7554
6657
6413
7204
5555
7687
5407
8901
7890
12799
8836
34659
9814
9079
9039
787
5914
9237
5925
6988
8559
5514
8311
25485
8022
7813
10179
12236
11852
11257
28884
146158
38594
8385
9610
8070
11176
12728
10282
26726
9202
8652
8311
8472
10209
10112
10359
2361
11939
33913
21915
22989
21879
17355
14020
15564
14850
16109
14399
13377
13980
10856
13789
13596
38725
11937
13596
13977
14415
13523
14428
12830
14668
2694
14109
14655
13551
16187
14889
20023
14947
14134
15216
15059
13120
13370
14983
35252
17745
14253
15669
11244
15159
14151
12131
19572
15515
14191
14910
13663
14560
15301
15035
15210
15605
15605
14388
16130
5791
15961
15006
16643
16659
14162
16532
17052
12261
18229
17986
15509
16480
14851
15802
6263
16048
15570
11664
16957
15916
14135
14967
4708
13094
13414
11712
13170
13663
8825
12016
10728
11289
11180
11873
14231
14029
14508
14815
12134
15096
15918
10057
20372
15047
7624
32977
13469
6345
12582
7584
9133
19389
12043
10092
10188
5974
14641
9733
10205
10992
10644
8812
12106
2269
12706
1792
12864
11470
11521
13820
8714
11750
55910
33330
27325
25736
45912
21543
22216
24593
19490
18889
21478
12363
19883
25544
23257
23422
15959
16402
186986
93448
30101
23913
27508
25844
23160
23380
20932
15383
16267
15533
15709
161192
20932
20681
18632
19881
2619
18832
4067
28241
24900
20768
30077
6803
21445
17912
18409
2733
5092
9058
20166
20348
13497
16918
2472
40517
29211
16730
15466
9393
16379
17152
8615
17312
17509
19252
21204
19320
17496
264972
17775
9725
17312
17322
17000
9442
10935
13746
3462
11887
11441
2930
11844
2024
15765
13468
13143
5618
15252
11401
12600
11451
12919
10968
12652
13050
3928
12734
11814
11184
3039
12652
11854
2238
7962
10800
33221
8551
11029
11787
11131
11822
11301
9410
11199
12134
7619
11182
12915
13578
12555
4526
13573
11044
11172
4256
7198
33187
10636
12313
11747
11736
5137
12086
9601
17639
5385
3305
12073
15274
8423
848
11284
13736
13796
14022
13665
15277
13544
11857
12472
11184
12771
14334
14401
19091
13015
13315
13905
9714
16745
13836
3192
10189
15744
13233
11758
14420
14027
15718
14366
3819
14983
14185
14239
14074
6564
15157
15425
14967
36615
8288
28884
3602
6098
49372
3470
12436
11478
80575
4348
3039
9726
44720
14278
9138
2544
33647
10394
63763
26154
77114
12472
13736
1728
23961
50941
22500
5719
77059
57552
38034
37861
8124
42625
5160
11260
15467
31288
16323
20678
18386
108889
109193
10629
13410
5814
2700
9711
5979
11488
12066
64037
38454
13775
6656
51733
7698
57917
9602
9223
11720
32675
14132
10105
8080
1005
9026
25798
22778
95475
9890
26146
16678
2931
10422
954
7895
16802
4768
16277
11715
56701
14604
10166
32645
8627
71577
8363
15665
44127
34419
29717
19338
33397
1269
2866
35925
3576
30549
10060
11587
13710
12408
5139
9916
29265
7135
13661
44832
11897
46334
33666
17869
61546
42560
2631
81507
12578
5076
23462
18739
9120
52723
41692
1365
65850
7528
11458
12947
19293
6463
53685
31546
2526
14050
11903
1814
9563
48820
31763
3563
61059
14342
15159
35827
13181
78061
3693
57016
16219
29232
78644
10782
2859
16422
15343
59815
19385
4587
16344
10314
3984
40766
122958
15427
5796
60621
5533
3187
17666
6107
60540
4131
17877
13962
15303
3628
14958
7697
9794
5223
969
12170
13738
7002
53302
16006
9694
11874
3775
17631
6639
7225
15540
7916
9787
2737
26196
12533
4461
39622
2278
64249
27103
5905
13000
11326
6330
44492
37795
55972
12181
9625
73536
28820
4714
41055
35668
52911
7336
7349
45441
14802
2258
21506
1588
38770
2937
14035
5769
44170
1351
56978
10364
46174
12918
11602
4938
3486
2202
9167
8184
83025
3391
45689
62919
33352
10524
24134
4606
31499
9411
42838
23228
5993
12931
34362
10290
59037
34205
61479
16061
44469
78768
16098
17595
3438
7805
13479
67400
10379
96277
13425
17641
44346
7729
7411
2034
13057
7445
56365
26106
8069
40420
41807
36306
34019
27221
1258
14786
46965
19709
1147
10249
3046
8773
9686
15003
10786
15064
40250
12410
47786
12884
14225
42816
13948
27665
10193
7899
13863
9846
10634
11910
10343
3624
110320
5871
9718
26848
5014
5739
6922
14481
10232
11310
18032
63996
11957
11487
11010
32085
2586
4726
24419
23893
905
34253
11778
55403
12750
13464
1091
25763
51118
3822
7134
4069
7033
15239
25964
10175
5355
1560
14162
1089
32439
4716
15770
40904
7469
15104
12671
19664
11809
12013
5555
2087
12032
12088
11797
6816
19332
4266
5893
10278
14232
20480
9594
4483
46048
7400
12442
10188
10328
17170
6673
3902
23774
12448
7615
21789
1587
1717
25568
8198
17010
45364
11807
19631
707
7515
4981
44486
12243
14239
17334
7167
2811
13850
12238
15637
51960
26205
6940
3364
9793
3703
6990
3497
13131
46658
3586
6041
2956
32630
13513
31737
11580
3260
12575
3984
13650
2081
8782
17725
7913
5599
13477
9249
629
4264
4911
16935
10155
2624
4217
798
9474
14102
1632
3103
43601
4386
7232
62205
3938
19987
4891
66346
16752
12904
4117
39957
3896
7160
13019
12247
5881
4191
11504
27783
2214
10151
11501
13853
2445
13953
9719
4735
4066
13866
7381
15219
18166
33251
7676
13795
8087
9243
3840
2624
5629
15462
7787
7970
12310
998
5328
22647963
113
