949494
35926
14246
21706
32831
89105
58664
85746
110881
136932
63318
77646
40868
58074
81954
95098
114499
90417
78784
104780
106002
169029
174147
182862
147651
96807
127854
121796
147089
165243
216755
188164
218192
217877
478587
206190
286245
246272
190580
316604
335790
301610
345640
360011
283580
405209
380815
431251
514363
472391
20655
417813
475112
504205
495616
686390
719550
776402
848067
842115
874232
923788
938177
976501
1005502
1042352
1068133
1116977
1160530
1207835
1503260
956945
1022138
728949
750695
763815
686777
644076
941497
760879
782597
925894
1007111
941718
15878
1229928
1217563
1329276
1377464
1429246
1474055
1557956
22796
1582704
1598738
1595188
1517195
1634580
1401251
1918251
1758986
2146837
1443617
1374836
1403378
1497129
5607
1487244
1501292
1630951
1528740
1731418
1707795
1899432
1897256
2177491
2113602
2205479
2212184
2009555
2043740
2227372
2172940
2562727
2920905
2497004
2495744
3000470
2788
3276057
7827
11551
2767148
3445915
3280605
3073336
3195156
4023151
3522037
4336721
3543508
4423082
3806858
4397
3900113
4925994
5289116
5412475
4900662
5012870
5131761
5236311
5355370
5481106
3708
2138
5883002
5691570
5819480
5952379
6076434
6534262
6326640
5933108
6612617
6794470
7080901
6465990
7318848
6822546
7896434
7240824
7068
7208805
8607697
8191800
8535534
8450063
8719119
8901358
8986446
9176482
9457608
10190381
10105027
10309
14664
9901701
10316277
10244456
10274648
10172831
10373350
11313372
12172900
12803372
11508045
11791972
11957793
13061278
11898799
12573884
13287472
13750710
13397441
13629246
13823710
14670243
14159844
14507394
14564634
15849976
2760
14582219
15330203
15812087
15794288
16683525
16517169
16774043
16671659
17536938
17914596
17861641
18400374
17371299
14121
19173514
21629001
18644500
18876740
19050050
19694138
13979
19445970
21910846
20006730
20952244
20363443
20292517
21546774
22546582
22193480
21732935
22271346
23329140
23671657
16783
24053797
23371027
25209254
24858028
26046988
25420096
25945028
26200855
27954279
28067391
27291497
28297275
28899844
28376453
3169
28953572
29769426
28007674
28474886
31671952
29901206
31375621
19318
29668917
32043376
14848
31221573
30952596
32118447
32372861
33238042
33238227
34145993
35142678
34484371
34800564
35206634
40266766
38393023
36312038
37970010
39799393
40198263
39180694
9838
40194817
40928111
25995
39822807
1677
41554869
41859011
42976362
43647663
42221471
12435
45001055
43869014
44266456
46472179
45219385
28824
45469520
12715
46727051
8548
46587977
10685
52355984
58490622
15620
47794387
52263477
52509681
52852078
50937559
49981986
51599745
50519702
52627394
56409993
52920018
54373114
14136
54268288
57673805
54447504
56466183
12911
55354034
57494156
15247
57239176
60597192
58534197
60492725
59673808
65758747
62715261
63178139
64040912
63735635
64718226
66009429
66966127
66968367
69912319
68077264
42990
67789434
5586
69787592
69719877
70080019
69880435
7097
71829376
15091
70454111
2056
16392
8598
72896497
72230855
14687
73531058
10915
74511692
4578
76833826
76252467
10795
77199420
77652134
2518
79085133
78089051
79073088
78817541
81397488
80716259
83340203
86687989
10830
92565130
85514272
84807429
8219
19844
85613251
4726
86698690
88097126
2641
10731
3072
89005942
89290023
90997072
1943
90838729
93913297
91177371
92660765
95937815
7803
94565096
96609515
12045
97353312
97045603
99341374
2788
99334203
99204330
8931
10853
101021592
100972812
9938
104149407
103227883
104604628
106627934
107183954
108304323
108512557
108770381
1899
109913095
111818760
112269876
116004583
10623
115022527
127208505
115073718
7641
24608
116997655
22120
118743855
118347995
119376135
18379
119388042
120997334
122958887
7192
6350
125725775
125372840
12644
11834
125720324
127322831
127421770
137887168
138621938
12026
139184519
139043659
18915
17683
141202897
141045179
142315433
141596573
143519295
143770943
145066328
2685
145565597
149603990
13297
16555
164625607
147843844
148389122
150355447
150612178
151637882
14808
1776
156068819
154613031
157623394
157342559
3012
161186815
161796271
160166415
171893
8846
6186
10496
5304
7103
2322
5588
11928
12009
12581
8670
4110
8661
6109
2833
11700
12230
14966
64803
6494
56763
6097
6169
13885
42426
24559
7519
15240
19430
110555
93513
46215
6243
91852
7938
10098
9676
54471
9570
42826
12487
48910
26132
6327
6734
6732
3347
3644
13142
8350
8834
108911
27234
11759
73144
29363
59569
80274
1841
7518
12755
28811
10122
2798
14039
11045
7813
74046
25301
55493
129097600
29966
11338
8118
9030
4861
7295
129001913
22938
12886
12666
50010
15435
21060
4714
7308
33304
13299
10759
54389
45305
82327
48270
124227784
25103
14610
8338
7370
49068
11586
11044
4376
42801
8578
13637
13908
3982
11204
58303
120406826
89023
70830
16655
27751
32979
2757
9161
2693
30489
9282
15798
55658
61946
62276
8174
19699
26974
6600
11421
14966
7721
63713
54980
4276
42331
1051
12800
7192
35527
107296570
5972
67381
9928
5426
22567
9119
22904
2259
51243
2935
105079187
88715
6983
13492
21810
4722
52781
11166
6993
10319
4168
12894
24333
82409
102465373
35721
201594
109322534
26264
23030
10845
63430
7647
115438097
11432
8406
9084
111678103
7360
17093
5269
11195
111843226
92828
8379
91221
111928255
5426
14597
18476
111686642
10158
10103
40039
15322
7445
4721
4628
6602
1655
69119
8919
34511
52164
6318
12178
13917
12895
11832
49688
55261
13363
10326
78665
51027
2786
8210
20521
103778
4327
9939
79873
5058
16321
33576
2250
63779
2806
16668
1456
49225
11769
23819
4803
64201
100025256
98360007
5970
11169
99789651
3752
13080
104301
12902
47208
126576
27488
2413
21839
1377
98475927
13538
63186
41534
10531
7750
10209
10232
32844
17310
50346
9258
14007
35771
6936
10691
38078
2535
4701
67771
8975
34795
15135
90546082
44210
3231
36175
4165
44774
10536
80311
6491
9856
46806
69627
49952
34911
13695
1868
87110159
110642
51888
9923
12482
9268
7696
7975
38354
83965865
5558
66983
86000835
26136
9118
18912
14293
83699206
14862
13212
5206
85498977
12355
86389815
86593187
15469
10371
14343
8535
12153
25479
8413
5247
2476
9722
8291
26943
15424
43718
1280
6702
3568
27391
3250
2297
29144
10723
2319
8771
6981
32384
26399
34232
4188
27632
24509
5078
8943
10730
1970
77584435
42433
17109
3486
8275
79582217
2826
70976
11358
78707292
37971
3251
80575233
17508
19430
76199352
11916
8948
3338
6819
96667588
81677843
8313
37137
22495
78701145
11918
12314
27295
10022
4112
26440
12447
25266
5076
4738
75365152
11530
8969
7572
23910
1460
12700
4234
5728
14697
13035
13155
26111
73172334
52701
3184
34728
11034
48660
1590
37153
30958
12532
9856
71765664
74545689
30873
66784
42602
8569
4417
12906
6356
8959
12758
8109
47703
3928
4746
1975
37025
70394095
6164
72394635
6136
26085
7773
71165253
12903
11976
20589
7709
6455
23326
7660
2327
3072
7586
12720
13018
4773
71956228
13645
9382
59293
2351
12178
42894
2321
8576
42594
8307
19966
8054
66469
67957537
70207224
18079
79540
1578
10880
13772
19548
10545
2818
2808
4806
570
3278
2031
19307
3665
11896
71385649
12778
2530
20314
44436
13122
5055
13633
3448
11419
13762
4422
5790
8628
3453
13224
9165
18387
11996
5077
2407
28415805
321
