1208220
17430
2553
3018
2473
3561
3844
4254
4606
4533
5021
5200
5476
6019
5800
9978
17683
5564
5628
5308
4869
5735
3956
4060
5678
6134
4536
4437
4978
6781
4897
6412
7337
7845
7744
7844
8223
15362
7193
10739
7042
9203
10062
10464
10841
8068
14228
9592
10245
10456
4440
10147
10445
7327
10689
10694
10799
7681
8170
14366
11546
12080
11888
12343
17263
22011
15450
5131
14868
14855
10550
14671
14313
13719
13952
12292
13446
32781
40523
16918
15337
20743
14534
16154
13454
7631
5449
15134
14419
15260
15387
15494
11478
11317
11053
13961
16589
12384
11985
25297
19914
20337
20465
20332
20008
21197
23775
20065
20279
21147
16935
18343
20769
19642
18766
21389
17913
17151
17395
17144
18741
19786
21264
20433
10352
23825
19530
22354
14295
25847
19942
20956
19025
33142
21548
21759
21108
23190
8250
5989
6365
7578
7036
5832
7960
2524
9216
8788
7760
8643
8609
4382
7811
7288
7848
7700
8152
8054
8159
7771
8119
8244
7817
8801
7976
3426
87280
81268
14491
18333
12164
14146
13914
1779
14629
13660
12752
11418
11717
11322
8107
12443
13335
11779
8545
7824
7964
8166
11734
11382
9472
15757
12341
15200
16753
14875
1827
15470
13499
36709
12669
12291
6609
11737
11105
11381
10958
12007
11040
10747
10433
9982
8937
6912
7560
11020
11493
11429
8524
9219
6793
6621
6734
10756
15097
17308
3752
14748
14727
15012
13838
12232
13397
3145
12664
9112
1057
22096
16016
13518
15293
17955
16097
16863
12642
11440
12431
12245
11802
12149
12245
33531
12257
12338
12423
16549
21722
19337
17713
17126
15006
9400
16479
15638
11035
11219
15971
15125
14347
13907
13726
13277
20642
14256
17694
6037
15941
15870
15889
14203
14831
14182
14507
8923
13751
14783
7995
23374
19954
16808
17534
15760
11591
15031
703
2519
15857
14939
8259
12062
14106
13051
15691
15061
14076
3515
17430
16360
17763
15351
15432
3534
12080
13548
14541
13852
12589
12432
18271
15976
21354
22535
19561
14924
17708
18547
17507
18619
18697
11126
18612
20515
20216
19152
17891
22335
18890
53021
24235
25341
12255
19504
19676
16665
15593
15663
3770
3340
16133
14320
14634
15369
14142
23420
31716
22200
8386
25529
27479
12101
24605
24203
19976
14761
23949
21418
15156
94079
22269
10729
23946
26851
26798
22762
32053
32961
26139
28685
29348
27741
20435
26360
27256
8109
25959
9416
27049
28249
28156
18141
16910
17053
16842
15859
4536
2299
19033
8759
22383
14556
12078
12088
10817
13090
12524
12455
12922
14676
15545
39339
12224
15483
12165
14402
10337
23345
19821
16661
1206
16791
15340
14320
15145
13973
15178
12893
12454
13169
4092
13024
13817
7434
14171
5275
4631
17195
13554
12145
13073
9844
13303
13881
13843
10795
12346
8547
10071
4457
13001
12522
3023
11839
7082
5693
13812
5449
13434
12718
13198
13192
12401
14264
14611
7736
13422
17136
12825
32438
13011
10804
11298
14230
14131
6823
14571
13571
12782
12486
13748
9518
14509
15128
12603
11101
11506
15164
8698
13831
11984
31986
14164
15398
12781
1879
11131
8440
13337
10324
4606
5288
24246
7663
196049
61209
102505
201196
5356
15153
139622
65651
61917
76356
17557
72537
122412
99259
12241
91138
5112
105279
98066
101638
91751
100528
10886
48848
9261
31666
3499
75965
62106
32753
60702
80927
58129
5534
47194
753
41640
17905
70698
73610
96784
45361
86925
74020
58075
2374
95024
52820
77618
2637
56638
45171
4556
110641
85791
45710
42544
75481
2546
89162
931
82882
78729
3302
29603
55838
55891
90441
61927
41249
38327
1107
4496
68845
40506
42472
53279
3368
30789
4804
39413
90003
7617
71018
65566
1873
39191
60875
7468
29228
13493
37174
6507
35910
51266
38642
10174
47962
6917
56184
54988
71027
54716
64906
64644
58623
48081
39684
93338
63580
76231
11588
10225
40268
19319
64634
9965
51862
72475
66746
10098
18647
1339
8056
73004
66612
5164
8425
6535
43437
6402
20383
74704
68873
56739
96470
92409
85258
110268
58747
62289
99414
7294
8258
106197
109954
127304
2488
68777
56960
99554
101933
104448
109795
129604
17953
93395
8341
61902
109245
16306
24852
26701
143689
40692
10213
107676
72546
86231
120690
163418
23709
34949
92051
4787
150063
85821
94669
69122
66888
8045
67504
3351
64811
12365
61090
11924
16536
88744
26438
67309
12386
61180
97587
59765
68453
3522
3976
18621
62409
76788
13242
36149
87990
60990
62925
67247
68022
69986
37142
4401
4464
70318
1600
10689
119392
66111
63452
1520
26616
12359
56411
48501
39565
55218
10059
6587
38912
10600
43953
41173
41416
43683
41683
6541
37675
36415
43568
39296
37782
18240
34760
42765
36969
45285
34153
9628
6863
41105
43285
1874
41205
1475
37159
19045
34059
6016
6152
2122
41510
45586
39751
39540
11168
39975
67331
62124
12132
25819
56548
24134
4394
52120
61894
51931
55583
10112
2884
73021
59499
3496
55771
30861
86652
9625
3685
52524
3309
56928
56928
41294
60307
4578
28885
64950
2807
53365
18657
2329
60116
6620
52802
50296
6242
50920
29984
63342
3650
65601
4292
68979
45987
94051
88199
91114
111691
70929
19267
76480
16393
15501
63236
13201
48979
69395
9730
63618
70712
64371
58944
56532
4592
42061
5656
31594
37746
5528
39533
37055
34547
5369
36457
34367
33529
57620
41832
25648
4235
4162
32038
31431
10794
42785
66646
28550
59740
53588
73751
42245
35855
34544
31744
32491
13893
37476
59480
7196
41393
33421
4078
39350
40974
13199
33648
37363
28337
37938
45718
8354
25208
31981
33099
41577
42805
40171
35121
57237
34869
37582
2283
32735
21657
32397
32774
38695
37702
31835
35397
37330
1055
17641
32241
32145
5848
36403
4710
81656
34008
36344
40682
36654
35271
31202
38931
36628
38030
39145
37861
7935
38762
39941
38440
48560
34368
57907
2610
33758
35442
35745
38970
28281
84877
48478
75191
65560
32525
43038
12937
25133
53009
61591
9871
61659
33116
17771
3700
7024
35702
15843
37158
30181
35111
40444
39625
36150
67655
23022
73029
16966
73357
49399
4620
70283
36351
75233
106189
66500
33061
93659
58594
65544
83166
63365
67841
1576
49727
59303
56302
22258
53992
86600
62671
57373
19441
6415
50742
50954
46200
53579
54508
51502
52396
4165
55355
48035
16434
54107
50339
30379306
279
