1077119
25579
5040
5561
19632
6464
7222
7566
6303
2899
8892
7576
4302
8872
6317
8267
9712
3765
3818
15303
17998
6119
6329
5585
7889
4515
4882
9034
7171
7989
5982
7614
7491
4749
6274
18321
5628
17916
5012
5944
4928
5668
5718
7533
6297
18301
5282
4592
5541
33923
4972
12225
4309
5137
5867
7614
7318
5918
14648
6547
34679
2083
3386
2414
1814
2038
2324
2642
2023
2982
1733
2713
1753
2330
1411
1326
1535
2098
2631
1727
2354
2195
2352
2396
5026
4564
3427
2342
2790
2382
3281
2519
1507
2431
1953
2273
4713
2779
2885
2426
2649
2756
2123
2813
3576
2581
3257
2699
2398
1665
3313
3432
2957
3154
2641
4011
9009
1967
2449
1945
1656
2736
3968
1941
2177
4577
2260
4878
2557
1875
3670
1904
2601
3333
2183
3436
2611
2858
2963
1763
1733
2334
3486
1969
3607
3428
2842
2391
2877
2668
2446
2963
2693
2474
2385
3302
2404
2760
1385
3130
3424
2674
2822
2566
2689
2163
3700
2348
2329
2648
2675
3094
3244
2195
3507
4153
6419
2769
4005
4714
4711
3163
18496
14654
10275
5046
3622
3329
2387
4517
2750
4260
3595
3670
3767
2646
4096
3426
3127
4606
3241
7713
3244
2944
4915
3684
4987
3563
2307
2866
3272
4243
4477
3229
3023
2208
4109
2736
3313
3023
2686
2875
2901
3279
3351
3715
4107
2289
2217
3335
2977
5426
4990
5603
3607
3169
3301
4241
4619
3978
3940
2755
4903
3590
3368
3272
4320
3150
2898
3904
3391
3485
3189
4023
3284
4273
2977
12097
3712
3276
2819
2141
2519
2845
4335
3408
2990
3433
3017
2858
3276
6817
2835
2971
2577
2946
3067
2670
2085
2415
3523
2739
3158
2325
2110
1926
1984
2771
3941
2178
2557
2721
2048
3179
3448
2847
2593
3223
4187
3473
3352
2342
3954
2399
1742
3567
2379
2715
3140
2494
2087
2817
1927
4539
2374
3276
2412
3602
3470
3459
3679
3416
1503
2220
3805
3260
9809
5332
3500
2669
3353
4313
3213
5675
3514
4584
3411
6337
3383
3493
4033
4100
3528
4123
3564
3002
4305
3948
1871
3794
1722
2968
2626
2834
3049
3044
3518
2620
3951
2746
3137
3022
2771
1776
5705
5344
3219
2270
2599
3515
3187
3105
2164
3939
2097
2735
4258
2039
1958
3753
2730
2039
3757
5556
2474
2910
2690
3843
2945
2684
3841
4901
4162
5870
5625
5202
5427
4388
22652
2507
2358
4801
3999
3774
3162
3109
2957
4629
38981
2539
2140
2733
2116
1081
2200
3436
2455
3316
2596
2405
3745
3139
2690
3313
2476
2615
2424
1859
2211
2238
2216
3256
3559
3112
4293
2230
2964
2765
2518
2833
2178
5598
1612
2238
1532
2442
2108
3144
3471
3555
3179
3780
2384
6992
1093
1932
2324
2496
2541
1779
3465
2436
3194
2030
1914
1660
2526
2243
2434
1942
4412
3134
3044
2110
3101
2335
2306
1797
2940
2387
3754
2504
2829
3223
3012
1943
1973
2678
1996
2055
2585
2877
3101
2216
2170
2415
2317
2640
2997
2088
30046
1967
190205
56455
80224
95051
5202
3273
71373
50365
56090
55276
7225
59240
39552
46696
21169
53968
2621
11088
56058
91660
64282
55846
3102
12870
4762
19674
5266
83593
190794
251718
100557
53853
47269
3457
46044
3532
79044
7284
61794
86271
41659
40998
60966
42040
42161
4176
39899
5872
43231
4233
42910
44469
27099
9415
52675
40362
40435
39139
14274
40811
3433
41608
41186
2618
9160
41360
50866
42752
50589
3533
82172
2536
3376
9347
63418
34127
31917
2339
19358
2840
11864
33150
1804
33332
31779
2148
7153
37832
1241
5359
1981
33167
1607
6755
32720
6413
1675
37686
1210
32920
31403
31248
32054
31814
32550
49273
38487
31767
31090
32666
4074
1804
805
53785
4260
34177
857
33213
32983
32787
1279
2870
1612
1050
32874
33330
2009
1933
1777
35811
1389
3701
34319
32156
31894
31426
30725
73064
49877
45507
42119
42683
4918
8183
46323
44688
52864
2612
46997
43487
46394
43998
45687
48337
50243
1808
46984
8326
46566
56604
2413
8743
15330
77031
4118
3354
48376
46651
48559
68159
68694
3732
21832
50485
3635
48974
49344
52314
57897
52637
3718
72503
3269
1905242
32860
136258
2673
1385
43138
3884
35371
1555
33549
34710
33300
32237
1953
2280
5994
7539
33486
5485
4084
34264
34351
38005
32743
31722
32450
1550
22880
3441
73306
3434
1993
116128
65480
62981
4285
5700
9385
63559
61935
61728
53908
1559
2919
62302
29687
51952
46444
54923
53798
52459
19220
9327
54805
50944
86002
56312
10178
53901
55829
52380
50869
53284
2824
2129
53751
52444
2928
44326
19529
8346
7546
43358
2439
2403
2669
43717
41264
42176
22512
10902
4653
58255
62685
3258
38227
51482
2361
4482
46838
83760
39936
308554
2982
3903
55271
49529
2558
48477
2762
49145
2904
3281
47819
2516
46524
55468
2586
47808
3610
2424
47513
5117
50617
4650
2654
50042
3812
47419
48014
16173
46921
3614
35620
3619
33687
2424
33484
1988
32441
31882
30821
30350
32540
1570
34065
1776
1804
33908
1758
1861
32044
2082
2317
32084
31044
32284
31351
2360
31446
820
3819
35741
1317
31227
31593
1651
1781
32263
31694
31327
2265
32122
2752
1849
1931
32795
32505
2210
33044
90795
6002
45794
46756
44944
35117
51747
51124
48117
47787
2411
47386
2784
1884
46006
45383
2016
2179
45517
3134
53794
52354
2898
52089
54267
3241
2691
56853
53759
53117
75585
52149
52174
3037
1805
52760
3445
53063
2595
53345
51823
54578
49058
49816
48749
48594
3115
3563
58576
53083
2244
51934
1884
5230
1906
54344
51684
52002
51624
59880
54804
52332
50565
51220
51083
1513
47751
47855
47890
57619
56617
3123
2743
52866
2115
61448
52757
2011
97439
51115
85347
68320
2860
52281
1462
1964
38048
42244
2402
37593
36125
2622
1858
1478
36750
3144
57374
53328
52974
51833
51023
52192
67198
4149
83221
4845
193681
5317
4682
88402
4643
72378
89927
60004
3109
59533
3862
81483
56560
52996
52821
3503
2549
54741
42659
3686
42919
40922
43868
40901
4024
3763
40565
38767
39880
39284
38264
39183
38613
2233
39045
39451
3040
38388
39211
31997247
366
