277155
23810
37027
8902
6831
9523
7846
20223
14052
7324
7769
13448
7642
12482
11688
11610
23535
12292
7758
10367
16722
12116
10227
10008
5823
5932
11956
14921
8659
13625
25728
8707
17253
17940
10202
21162
6646
28733
6763
7197
6153
4496
11517
8983
8273
9992
10611
8199
12965
9784
13254
7501
8711
10675
11182
6963
6513
6812
9265
7990
6834
10932
7848
7537
5077
6965
11353
6177
12812
6830
5047
10897
5874
8659
5017
7500
12452
6695
10686
11248
8584
7922
5250
4327
9848
230093
8415
10501
7231
11175
8819
6567
6537
9798
6226
5422
10474
5720
6605
9620
15248
10528
6426
8882
6435
11303
8039
10850
14490
8919
8103
10354
8550
10570
11186
11339
11101
10551
7851
7288
11198
11609
7412
10648
8197
12325
7471
17035
10390
10443
11988
7613
7626
13087
6834
13536
16141
11724
12837
7187
7212
6856
11152
10234
12575
19689
9493
7413
7985
7300
7603
9079
16338
6865
12244
11456
7322
9085
16422
9584
9988
6548
6588
16618
9778
8707
8062
7858
41934
24102
31886
14029
10516
9154
9458
8537
7900
13300
7855
8228
10985
9792
6752
7770
9514
5877
7156
9151
5488
18464
7701
11755
7830
10530
8977
13635
9295
12220
7999
8513
7453
11354
9652
9893
13013
9649
10164
11283
7452
7928
11108
13461
10371
6677
9907
6899
9678
12372
9718
6901
6837
7638
10431
9622
7404
6064
9724
7371
14577
8190
10386
9405
8264
9219
5023
7798
15302
8863
8063
24697
9674
10143
7657
8940
8707
6363
9796
6640
9006
8606
8839
12755
9669
6618
10949
8051
6226
8757
4621
7668
4938
7733
7392
6853
13100
10067
9276
6569
7995
5855
5000
6494
10839
8486
8452
7277
24861
19455
7007
6366
11557
9814
10129
6634
10230
13556
8308
9936
11697
9757
8572
6246
9550
7792
6998
6966
7789
6951
7153
7871
6115
5581
5653
9589
9273
8665
7146
4509
7160
6373
8595
7607
6842
6213
5176
25736
7211
5677
6400
6023
7038
6378
5713
9217
6677
8934
29458
8443
5942
6724
28878
8144
23707
8675
6439
8665
8018
8998
6465
10193
46307
6018
9455
9370
6636
7312
8578
8440
7349
30883
3682
4766
6245
6590
6588
6744
7335
10334
7578
26967
117346
77328
9512
6578
7586
7914
6206
5302
5093
6518
35302
4698
44480
4477
16326
7374
6918
5379
4510
4449
11321
7637
7564
9884
5020
10536
8115
7793
4295
3888
6057
5268
3966
4643
4410
4076
4793
4351
3984
5608
5324
8784
2842
4897
4564
4578
6581
6751
4179
4098
3418
2709
2589
1848
2657
3274
6168
3425
4081
3066
4308
5051
6311
2985
5407
3869
24172
3417
4953
3517
4073
4793
3690
3802
4716
4942
3207
4581
3563
4324
4381
4835
3796
4596
4082
2944
3261
2957
3177
2551
2921
4685
2950
3288
2158
3270
2605
4118
4166
3957
4203
5012
4695
5528
5022
3635
3979
4439
5825
3471
6458
5433
3949
5079
4069
4492
5308
3809
4283
4991
4365
5291
3374
3658
3618
3717
4322
4973
3296
3540
4816
4878
3443
5775
5605
5211
4811
4888
3886
5403
40644
4490
186003
64419
386469
1909496
6224
5276
55146
63774
52823
81622
16342
50632
15776
56205
21531
55090
6789
12509
118225
57782
56210
49811
5262
7121
4626
5594
5302
62880
54282
43133
42058
34140
34975
4278
34627
3665
36825
3811
33768
34207
34181
161782
35011
33398
33522
3463
37441
3535
32926
3314
33039
32318
23371
5558
47682
44997
45891
44049
23974
33557
2478
32263
32851
2414
4788
33227
32149
31474
32183
2860
32751
1734
2692
4019
33160
32609
32027
2322
3025
2053
5298
34161
2028
32246
58888
2549
4163
52824
1555
4895
3809
51397
2608
3748
47405
4323
2637
53379
1899
34703
32650
30997
32075
33120
30938
30843
35674
34612
32936
51379
8133
17903
1684
34648
5325
37009
1492
33647
32376
33041
1794
3002
1956
1977
33093
34830
1940
2088
1979
33519
2219
6298
53523
54912
47377
45836
44349
55997
52587
49232
51053
51248
3057
3391
49511
47022
44655
3241
68426
51222
46852
56380
50250
48878
54633
1943
53950
3431
56510
57269
2940
10676
7099
90773
5142
3100
84189
59968
74544
73249
60677
4320
8206
74813
2713
38369
37057
36135
35577
35182
2437
35453
2886
36875
4254
35948
2140
1547
36795
2725
34777
1258
35185
34286
72123
74123
3407
2626
4965
4671
38212
3632
15610
53214
41213
38574
36915
35704
39279
3070
2724
2453
37940
2683
3149
94757
54585
54606
3323
3361
4297
54509
50886
51447
56991
1828
2619
54305
5119
56605
53741
51706
52596
51772
2526
3674
54210
54888
52413
51546
3827
53548
51912
52174
51813
52723
1893
2185
41300
37300
2646
38276
2277
4620
17009
53385
2269
2319
1892
38792
43885
37232
8504
4809
5443
38069
72041
2526
4029
55757
6731
2885
57698
73393
4510
56298
3264
3046
59643
58024
3060
60716
3807
38746
2649
2228
37971
2301
36410
36360
3059
35338
3129
3745
36782
3208
37906
2827
3101
41686
2245
39663
38232
1467
39491
4941
38789
3373
38464
2401
37385
3759
40202
38398
37510
37391
37642
2065
38454
2146
2055
38041
3193
4435
61514
2982
9260
58193
56908
57595
56881
3470
57940
2915
5930
57909
2354
61083
57195
8256
4182
57735
65058
57192
5033
56405
4836
2720
2788
57561
71525
6023
52004
85526
5578
56721
59218
56133
61601
53436
52478
52733
52358
7925
52868
22219
4876
60787
88705
4282
5753
69029
10095
72139
69315
8785
68210
70748
10850
6916
67040
64802
54442
67247
57459
57279
10064
2569
60232
4905
73707
6397
43950
40841
41078
39042
38838
39907
38378
3760
8820
40271
38669
2362
38569
2586
5748
1966
39060
37954
49115
38255
38030
36653
37897
79760
58136
49379
1274
48504
47224
48257
54782
48225
5860
6880
49513
2402
51993
50594
4079
107902
64256
57806
73672
5135
82064
5353
3323
49697
48415
3552
47651
51897
6770
2706
2768
48972
3723
52366
52326
54766
55782
51938
51998
55982
7357
79306
7106
66408
5711
3870
66507
5693
57843
54762
116397
14557
76825
11340
76669
72684
59947
59865
3400
2292
46935
46411
4421
45652
47485
47590
47020
4652
2205
46950
70280
46752
46397
45684
46163
48467
2194
47592
47857
4439
46392
45670
29460904
164
